^C:\DEVELOPMENT\CODE BASE\TESTAPPLICATION\MAIN.CPP
D:\PROGRAM FILES\VISUAL STUDIO 2013\VC\BIN\1033\CLUI.DLL
C:\WINDOWS\GLOBALIZATION\SORTING\SORTDEFAULT.NLS
C:\WINDOWS\SYSTEM32\TZRES.DLL
C:\DEVELOPMENT\OTS-LIB\QT 5.5\MSVC2013\INCLUDE\QTWIDGETS\QAPPLICATION
C:\DEVELOPMENT\OTS-LIB\QT 5.5\MSVC2013\INCLUDE\QTWIDGETS\QAPPLICATION.H
C:\DEVELOPMENT\OTS-LIB\QT 5.5\MSVC2013\INCLUDE\QTCORE\QCOREAPPLICATION.H
C:\DEVELOPMENT\OTS-LIB\QT 5.5\MSVC2013\INCLUDE\QTCORE\QGLOBAL.H
D:\PROGRAM FILES\VISUAL STUDIO 2013\VC\INCLUDE\CSTDDEF
D:\PROGRAM FILES\VISUAL STUDIO 2013\VC\INCLUDE\YVALS.H
D:\PROGRAM FILES\VISUAL STUDIO 2013\VC\INCLUDE\XKEYCHECK.H
D:\PROGRAM FILES\VISUAL STUDIO 2013\VC\INCLUDE\CRTDEFS.H
D:\PROGRAM FILES\VISUAL STUDIO 2013\VC\INCLUDE\SAL.H
D:\PROGRAM FILES\VISUAL STUDIO 2013\VC\INCLUDE\CONCURRENCYSAL.H
D:\PROGRAM FILES\VISUAL STUDIO 2013\VC\INCLUDE\VADEFS.H
D:\PROGRAM FILES\VISUAL STUDIO 2013\VC\INCLUDE\USE_ANSI.H
D:\PROGRAM FILES\VISUAL STUDIO 2013\VC\INCLUDE\STDDEF.H
C:\DEVELOPMENT\OTS-LIB\QT 5.5\MSVC2013\INCLUDE\QTCORE\QCONFIG.H
C:\DEVELOPMENT\OTS-LIB\QT 5.5\MSVC2013\INCLUDE\QTCORE\QFEATURES.H
C:\DEVELOPMENT\OTS-LIB\QT 5.5\MSVC2013\INCLUDE\QTCORE\QSYSTEMDETECTION.H
C:\DEVELOPMENT\OTS-LIB\QT 5.5\MSVC2013\INCLUDE\QTCORE\QPROCESSORDETECTION.H
C:\DEVELOPMENT\OTS-LIB\QT 5.5\MSVC2013\INCLUDE\QTCORE\QCOMPILERDETECTION.H
D:\PROGRAM FILES\VISUAL STUDIO 2013\VC\INCLUDE\UTILITY
D:\PROGRAM FILES\VISUAL STUDIO 2013\VC\INCLUDE\XSTDDEF
D:\PROGRAM FILES\VISUAL STUDIO 2013\VC\INCLUDE\STDLIB.H
D:\PROGRAM FILES\VISUAL STUDIO 2013\VC\INCLUDE\LIMITS.H
D:\PROGRAM FILES\VISUAL STUDIO 2013\VC\INCLUDE\INITIALIZER_LIST
D:\PROGRAM FILES\VISUAL STUDIO 2013\VC\INCLUDE\XTR1COMMON
D:\PROGRAM FILES\VISUAL STUDIO 2013\VC\INCLUDE\IOSFWD
D:\PROGRAM FILES\VISUAL STUDIO 2013\VC\INCLUDE\CSTDIO
D:\PROGRAM FILES\VISUAL STUDIO 2013\VC\INCLUDE\STDIO.H
D:\PROGRAM FILES\VISUAL STUDIO 2013\VC\INCLUDE\SWPRINTF.INL
D:\PROGRAM FILES\VISUAL STUDIO 2013\VC\INCLUDE\CSTRING
D:\PROGRAM FILES\VISUAL STUDIO 2013\VC\INCLUDE\STRING.H
D:\PROGRAM FILES\VISUAL STUDIO 2013\VC\INCLUDE\CWCHAR
D:\PROGRAM FILES\VISUAL STUDIO 2013\VC\INCLUDE\WCHAR.H
D:\PROGRAM FILES\VISUAL STUDIO 2013\VC\INCLUDE\WTIME.INL
D:\PROGRAM FILES\VISUAL STUDIO 2013\VC\INCLUDE\CRTDBG.H
D:\PROGRAM FILES\VISUAL STUDIO 2013\VC\INCLUDE\TYPE_TRAITS
D:\PROGRAM FILES\VISUAL STUDIO 2013\VC\INCLUDE\XREFWRAP
D:\PROGRAM FILES\VISUAL STUDIO 2013\VC\INCLUDE\ALGORITHM
D:\PROGRAM FILES\VISUAL STUDIO 2013\VC\INCLUDE\XMEMORY
D:\PROGRAM FILES\VISUAL STUDIO 2013\VC\INCLUDE\XMEMORY0
D:\PROGRAM FILES\VISUAL STUDIO 2013\VC\INCLUDE\CSTDLIB
D:\PROGRAM FILES\VISUAL STUDIO 2013\VC\INCLUDE\LIMITS
D:\PROGRAM FILES\VISUAL STUDIO 2013\VC\INCLUDE\YMATH.H
D:\PROGRAM FILES\VISUAL STUDIO 2013\VC\INCLUDE\CFLOAT
D:\PROGRAM FILES\VISUAL STUDIO 2013\VC\INCLUDE\FLOAT.H
D:\PROGRAM FILES\VISUAL STUDIO 2013\VC\INCLUDE\CRTWRN.H
D:\PROGRAM FILES\VISUAL STUDIO 2013\VC\INCLUDE\CLIMITS
D:\PROGRAM FILES\VISUAL STUDIO 2013\VC\INCLUDE\CMATH
D:\PROGRAM FILES\VISUAL STUDIO 2013\VC\INCLUDE\MATH.H
D:\PROGRAM FILES\VISUAL STUDIO 2013\VC\INCLUDE\XTGMATH.H
D:\PROGRAM FILES\VISUAL STUDIO 2013\VC\INCLUDE\NEW
D:\PROGRAM FILES\VISUAL STUDIO 2013\VC\INCLUDE\EXCEPTION
D:\PROGRAM FILES\VISUAL STUDIO 2013\VC\INCLUDE\EH.H
D:\PROGRAM FILES\VISUAL STUDIO 2013\VC\INCLUDE\MALLOC.H
D:\PROGRAM FILES\VISUAL STUDIO 2013\VC\INCLUDE\XUTILITY
D:\PROGRAM FILES\VISUAL STUDIO 2013\VC\INCLUDE\XATOMIC0.H
D:\PROGRAM FILES\VISUAL STUDIO 2013\VC\INCLUDE\INTRIN.H
D:\PROGRAM FILES\VISUAL STUDIO 2013\VC\INCLUDE\SETJMP.H
D:\PROGRAM FILES\VISUAL STUDIO 2013\VC\INCLUDE\IMMINTRIN.H
D:\PROGRAM FILES\VISUAL STUDIO 2013\VC\INCLUDE\WMMINTRIN.H
D:\PROGRAM FILES\VISUAL STUDIO 2013\VC\INCLUDE\NMMINTRIN.H
D:\PROGRAM FILES\VISUAL STUDIO 2013\VC\INCLUDE\SMMINTRIN.H
D:\PROGRAM FILES\VISUAL STUDIO 2013\VC\INCLUDE\TMMINTRIN.H
D:\PROGRAM FILES\VISUAL STUDIO 2013\VC\INCLUDE\PMMINTRIN.H
D:\PROGRAM FILES\VISUAL STUDIO 2013\VC\INCLUDE\EMMINTRIN.H
D:\PROGRAM FILES\VISUAL STUDIO 2013\VC\INCLUDE\XMMINTRIN.H
D:\PROGRAM FILES\VISUAL STUDIO 2013\VC\INCLUDE\MMINTRIN.H
D:\PROGRAM FILES\VISUAL STUDIO 2013\VC\INCLUDE\AMMINTRIN.H
D:\PROGRAM FILES\VISUAL STUDIO 2013\VC\INCLUDE\MM3DNOW.H
C:\DEVELOPMENT\OTS-LIB\QT 5.5\MSVC2013\INCLUDE\QTCORE\QTYPEINFO.H
C:\DEVELOPMENT\OTS-LIB\QT 5.5\MSVC2013\INCLUDE\QTCORE\QTYPETRAITS.H
C:\DEVELOPMENT\OTS-LIB\QT 5.5\MSVC2013\INCLUDE\QTCORE\QSYSINFO.H
C:\DEVELOPMENT\OTS-LIB\QT 5.5\MSVC2013\INCLUDE\QTCORE\QLOGGING.H
C:\DEVELOPMENT\OTS-LIB\QT 5.5\MSVC2013\INCLUDE\QTCORE\QFLAGS.H
C:\DEVELOPMENT\OTS-LIB\QT 5.5\MSVC2013\INCLUDE\QTCORE\QATOMIC.H
C:\DEVELOPMENT\OTS-LIB\QT 5.5\MSVC2013\INCLUDE\QTCORE\QBASICATOMIC.H
C:\DEVELOPMENT\OTS-LIB\QT 5.5\MSVC2013\INCLUDE\QTCORE\QATOMIC_MSVC.H
C:\DEVELOPMENT\OTS-LIB\QT 5.5\MSVC2013\INCLUDE\QTCORE\QGENERICATOMIC.H
C:\DEVELOPMENT\OTS-LIB\QT 5.5\MSVC2013\INCLUDE\QTCORE\QGLOBALSTATIC.H
C:\DEVELOPMENT\OTS-LIB\QT 5.5\MSVC2013\INCLUDE\QTCORE\QMUTEX.H
C:\DEVELOPMENT\OTS-LIB\QT 5.5\MSVC2013\INCLUDE\QTCORE\QNUMERIC.H
C:\DEVELOPMENT\OTS-LIB\QT 5.5\MSVC2013\INCLUDE\QTCORE\QSTRING.H
C:\DEVELOPMENT\OTS-LIB\QT 5.5\MSVC2013\INCLUDE\QTCORE\QCHAR.H
C:\DEVELOPMENT\OTS-LIB\QT 5.5\MSVC2013\INCLUDE\QTCORE\QBYTEARRAY.H
C:\DEVELOPMENT\OTS-LIB\QT 5.5\MSVC2013\INCLUDE\QTCORE\QREFCOUNT.H
C:\DEVELOPMENT\OTS-LIB\QT 5.5\MSVC2013\INCLUDE\QTCORE\QNAMESPACE.H
C:\DEVELOPMENT\OTS-LIB\QT 5.5\MSVC2013\INCLUDE\QTCORE\QARRAYDATA.H
D:\PROGRAM FILES\VISUAL STUDIO 2013\VC\INCLUDE\STDARG.H
D:\PROGRAM FILES\VISUAL STUDIO 2013\VC\INCLUDE\STRING
D:\PROGRAM FILES\VISUAL STUDIO 2013\VC\INCLUDE\ITERATOR
D:\PROGRAM FILES\VISUAL STUDIO 2013\VC\INCLUDE\ISTREAM
D:\PROGRAM FILES\VISUAL STUDIO 2013\VC\INCLUDE\OSTREAM
D:\PROGRAM FILES\VISUAL STUDIO 2013\VC\INCLUDE\IOS
D:\PROGRAM FILES\VISUAL STUDIO 2013\VC\INCLUDE\XLOCNUM
D:\PROGRAM FILES\VISUAL STUDIO 2013\VC\INCLUDE\STREAMBUF
D:\PROGRAM FILES\VISUAL STUDIO 2013\VC\INCLUDE\XIOSBASE
D:\PROGRAM FILES\VISUAL STUDIO 2013\VC\INCLUDE\XLOCALE
D:\PROGRAM FILES\VISUAL STUDIO 2013\VC\INCLUDE\STDEXCEPT
D:\PROGRAM FILES\VISUAL STUDIO 2013\VC\INCLUDE\XSTRING
D:\PROGRAM FILES\VISUAL STUDIO 2013\VC\INCLUDE\TYPEINFO
D:\PROGRAM FILES\VISUAL STUDIO 2013\VC\INCLUDE\XLOCINFO
D:\PROGRAM FILES\VISUAL STUDIO 2013\VC\INCLUDE\XLOCINFO.H
D:\PROGRAM FILES\VISUAL STUDIO 2013\VC\INCLUDE\CTYPE.H
D:\PROGRAM FILES\VISUAL STUDIO 2013\VC\INCLUDE\LOCALE.H
D:\PROGRAM FILES\VISUAL STUDIO 2013\VC\INCLUDE\XDEBUG
D:\PROGRAM FILES\VISUAL STUDIO 2013\VC\INCLUDE\XFACET
D:\PROGRAM FILES\VISUAL STUDIO 2013\VC\INCLUDE\SYSTEM_ERROR
D:\PROGRAM FILES\VISUAL STUDIO 2013\VC\INCLUDE\CERRNO
D:\PROGRAM FILES\VISUAL STUDIO 2013\VC\INCLUDE\ERRNO.H
D:\PROGRAM FILES\VISUAL STUDIO 2013\VC\INCLUDE\SHARE.H
C:\DEVELOPMENT\OTS-LIB\QT 5.5\MSVC2013\INCLUDE\QTCORE\QOBJECT.H
C:\DEVELOPMENT\OTS-LIB\QT 5.5\MSVC2013\INCLUDE\QTCORE\QOBJECTDEFS.H
C:\DEVELOPMENT\OTS-LIB\QT 5.5\MSVC2013\INCLUDE\QTCORE\QOBJECTDEFS_IMPL.H
C:\DEVELOPMENT\OTS-LIB\QT 5.5\MSVC2013\INCLUDE\QTCORE\QLIST.H
C:\DEVELOPMENT\OTS-LIB\QT 5.5\MSVC2013\INCLUDE\QTCORE\QALGORITHMS.H
C:\DEVELOPMENT\OTS-LIB\QT 5.5\MSVC2013\INCLUDE\QTCORE\QITERATOR.H
D:\PROGRAM FILES\VISUAL STUDIO 2013\VC\INCLUDE\LIST
C:\DEVELOPMENT\OTS-LIB\QT 5.5\MSVC2013\INCLUDE\QTCORE\QBYTEARRAYLIST.H
C:\DEVELOPMENT\OTS-LIB\QT 5.5\MSVC2013\INCLUDE\QTCORE\QSTRINGLIST.H
C:\DEVELOPMENT\OTS-LIB\QT 5.5\MSVC2013\INCLUDE\QTCORE\QREGEXP.H
C:\DEVELOPMENT\OTS-LIB\QT 5.5\MSVC2013\INCLUDE\QTCORE\QSTRINGMATCHER.H
C:\DEVELOPMENT\OTS-LIB\QT 5.5\MSVC2013\INCLUDE\QTCORE\QSCOPEDPOINTER.H
C:\DEVELOPMENT\OTS-LIB\QT 5.5\MSVC2013\INCLUDE\QTCORE\QMETATYPE.H
C:\DEVELOPMENT\OTS-LIB\QT 5.5\MSVC2013\INCLUDE\QTCORE\QVARLENGTHARRAY.H
C:\DEVELOPMENT\OTS-LIB\QT 5.5\MSVC2013\INCLUDE\QTCORE\QCONTAINERFWD.H
C:\DEVELOPMENT\OTS-LIB\QT 5.5\MSVC2013\INCLUDE\QTCORE\QISENUM.H
D:\PROGRAM FILES\VISUAL STUDIO 2013\VC\INCLUDE\VECTOR
D:\PROGRAM FILES\VISUAL STUDIO 2013\VC\INCLUDE\MAP
D:\PROGRAM FILES\VISUAL STUDIO 2013\VC\INCLUDE\XTREE
D:\PROGRAM FILES\VISUAL STUDIO 2013\VC\INCLUDE\TUPLE
C:\DEVELOPMENT\OTS-LIB\QT 5.5\MSVC2013\INCLUDE\QTCORE\QOBJECT_IMPL.H
C:\DEVELOPMENT\OTS-LIB\QT 5.5\MSVC2013\INCLUDE\QTCORE\QCOREEVENT.H
C:\DEVELOPMENT\OTS-LIB\QT 5.5\MSVC2013\INCLUDE\QTCORE\QEVENTLOOP.H
C:\DEVELOPMENT\OTS-LIB\QT 5.5\MSVC2013\INCLUDE\QTGUI\QWINDOWDEFS.H
C:\DEVELOPMENT\OTS-LIB\QT 5.5\MSVC2013\INCLUDE\QTGUI\QWINDOWDEFS_WIN.H
C:\DEVELOPMENT\OTS-LIB\QT 5.5\MSVC2013\INCLUDE\QTCORE\QPOINT.H
C:\DEVELOPMENT\OTS-LIB\QT 5.5\MSVC2013\INCLUDE\QTCORE\QSIZE.H
C:\DEVELOPMENT\OTS-LIB\QT 5.5\MSVC2013\INCLUDE\QTGUI\QCURSOR.H
C:\DEVELOPMENT\OTS-LIB\QT 5.5\MSVC2013\INCLUDE\QTGUI\QGUIAPPLICATION.H
C:\DEVELOPMENT\OTS-LIB\QT 5.5\MSVC2013\INCLUDE\QTGUI\QINPUTMETHOD.H
C:\DEVELOPMENT\OTS-LIB\QT 5.5\MSVC2013\INCLUDE\QTCORE\QLOCALE.H
C:\DEVELOPMENT\OTS-LIB\QT 5.5\MSVC2013\INCLUDE\QTCORE\QVARIANT.H
C:\DEVELOPMENT\OTS-LIB\QT 5.5\MSVC2013\INCLUDE\QTCORE\QMAP.H
C:\DEVELOPMENT\OTS-LIB\QT 5.5\MSVC2013\INCLUDE\QTCORE\QPAIR.H
C:\DEVELOPMENT\OTS-LIB\QT 5.5\MSVC2013\INCLUDE\QTCORE\QHASH.H
D:\PROGRAM FILES\VISUAL STUDIO 2013\VC\INCLUDE\NUMERIC
C:\DEVELOPMENT\OTS-LIB\QT 5.5\MSVC2013\INCLUDE\QTCORE\QSHAREDDATA.H
C:\DEVELOPMENT\CODE BASE\CORELIBS\IMU-LIB\INCLUDE\BLEVVWIDGET.H
C:\DEVELOPMENT\CODE BASE\CORELIBS\IMU-LIB\GENERATEDFILES\UI_BLEDIALOGVV.H
C:\DEVELOPMENT\OTS-LIB\QT 5.5\MSVC2013\INCLUDE\QTCORE\QVARIANT
C:\DEVELOPMENT\OTS-LIB\QT 5.5\MSVC2013\INCLUDE\QTWIDGETS\QACTION
C:\DEVELOPMENT\OTS-LIB\QT 5.5\MSVC2013\INCLUDE\QTWIDGETS\QACTION.H
C:\DEVELOPMENT\OTS-LIB\QT 5.5\MSVC2013\INCLUDE\QTGUI\QKEYSEQUENCE.H
C:\DEVELOPMENT\OTS-LIB\QT 5.5\MSVC2013\INCLUDE\QTWIDGETS\QWIDGET.H
C:\DEVELOPMENT\OTS-LIB\QT 5.5\MSVC2013\INCLUDE\QTCORE\QMARGINS.H
C:\DEVELOPMENT\OTS-LIB\QT 5.5\MSVC2013\INCLUDE\QTGUI\QPAINTDEVICE.H
C:\DEVELOPMENT\OTS-LIB\QT 5.5\MSVC2013\INCLUDE\QTCORE\QRECT.H
C:\DEVELOPMENT\OTS-LIB\QT 5.5\MSVC2013\INCLUDE\QTGUI\QPALETTE.H
C:\DEVELOPMENT\OTS-LIB\QT 5.5\MSVC2013\INCLUDE\QTGUI\QCOLOR.H
C:\DEVELOPMENT\OTS-LIB\QT 5.5\MSVC2013\INCLUDE\QTGUI\QRGB.H
C:\DEVELOPMENT\OTS-LIB\QT 5.5\MSVC2013\INCLUDE\QTGUI\QBRUSH.H
C:\DEVELOPMENT\OTS-LIB\QT 5.5\MSVC2013\INCLUDE\QTCORE\QVECTOR.H
C:\DEVELOPMENT\OTS-LIB\QT 5.5\MSVC2013\INCLUDE\QTGUI\QMATRIX.H
C:\DEVELOPMENT\OTS-LIB\QT 5.5\MSVC2013\INCLUDE\QTGUI\QPOLYGON.H
C:\DEVELOPMENT\OTS-LIB\QT 5.5\MSVC2013\INCLUDE\QTGUI\QREGION.H
C:\DEVELOPMENT\OTS-LIB\QT 5.5\MSVC2013\INCLUDE\QTCORE\QDATASTREAM.H
C:\DEVELOPMENT\OTS-LIB\QT 5.5\MSVC2013\INCLUDE\QTCORE\QIODEVICE.H
C:\DEVELOPMENT\OTS-LIB\QT 5.5\MSVC2013\INCLUDE\QTCORE\QLINE.H
C:\DEVELOPMENT\OTS-LIB\QT 5.5\MSVC2013\INCLUDE\QTGUI\QTRANSFORM.H
C:\DEVELOPMENT\OTS-LIB\QT 5.5\MSVC2013\INCLUDE\QTGUI\QPAINTERPATH.H
C:\DEVELOPMENT\OTS-LIB\QT 5.5\MSVC2013\INCLUDE\QTGUI\QIMAGE.H
C:\DEVELOPMENT\OTS-LIB\QT 5.5\MSVC2013\INCLUDE\QTGUI\QPIXELFORMAT.H
C:\DEVELOPMENT\OTS-LIB\QT 5.5\MSVC2013\INCLUDE\QTGUI\QPIXMAP.H
C:\DEVELOPMENT\OTS-LIB\QT 5.5\MSVC2013\INCLUDE\QTCORE\QSHAREDPOINTER.H
C:\DEVELOPMENT\OTS-LIB\QT 5.5\MSVC2013\INCLUDE\QTCORE\QSHAREDPOINTER_IMPL.H
C:\DEVELOPMENT\OTS-LIB\QT 5.5\MSVC2013\INCLUDE\QTGUI\QFONT.H
C:\DEVELOPMENT\OTS-LIB\QT 5.5\MSVC2013\INCLUDE\QTGUI\QFONTMETRICS.H
C:\DEVELOPMENT\OTS-LIB\QT 5.5\MSVC2013\INCLUDE\QTGUI\QFONTINFO.H
C:\DEVELOPMENT\OTS-LIB\QT 5.5\MSVC2013\INCLUDE\QTWIDGETS\QSIZEPOLICY.H
C:\DEVELOPMENT\OTS-LIB\QT 5.5\MSVC2013\INCLUDE\QTGUI\QICON.H
C:\DEVELOPMENT\OTS-LIB\QT 5.5\MSVC2013\INCLUDE\QTWIDGETS\QACTIONGROUP.H
C:\DEVELOPMENT\OTS-LIB\QT 5.5\MSVC2013\INCLUDE\QTWIDGETS\QBUTTONGROUP
C:\DEVELOPMENT\OTS-LIB\QT 5.5\MSVC2013\INCLUDE\QTWIDGETS\QBUTTONGROUP.H
C:\DEVELOPMENT\OTS-LIB\QT 5.5\MSVC2013\INCLUDE\QTWIDGETS\QCHECKBOX
C:\DEVELOPMENT\OTS-LIB\QT 5.5\MSVC2013\INCLUDE\QTWIDGETS\QCHECKBOX.H
C:\DEVELOPMENT\OTS-LIB\QT 5.5\MSVC2013\INCLUDE\QTWIDGETS\QABSTRACTBUTTON.H
C:\DEVELOPMENT\OTS-LIB\QT 5.5\MSVC2013\INCLUDE\QTWIDGETS\QDIALOG
C:\DEVELOPMENT\OTS-LIB\QT 5.5\MSVC2013\INCLUDE\QTWIDGETS\QDIALOG.H
C:\DEVELOPMENT\OTS-LIB\QT 5.5\MSVC2013\INCLUDE\QTWIDGETS\QGROUPBOX
C:\DEVELOPMENT\OTS-LIB\QT 5.5\MSVC2013\INCLUDE\QTWIDGETS\QGROUPBOX.H
C:\DEVELOPMENT\OTS-LIB\QT 5.5\MSVC2013\INCLUDE\QTWIDGETS\QFRAME.H
C:\DEVELOPMENT\OTS-LIB\QT 5.5\MSVC2013\INCLUDE\QTWIDGETS\QHEADERVIEW
C:\DEVELOPMENT\OTS-LIB\QT 5.5\MSVC2013\INCLUDE\QTWIDGETS\QHEADERVIEW.H
C:\DEVELOPMENT\OTS-LIB\QT 5.5\MSVC2013\INCLUDE\QTWIDGETS\QABSTRACTITEMVIEW.H
C:\DEVELOPMENT\OTS-LIB\QT 5.5\MSVC2013\INCLUDE\QTWIDGETS\QABSTRACTSCROLLAREA.H
C:\DEVELOPMENT\OTS-LIB\QT 5.5\MSVC2013\INCLUDE\QTCORE\QABSTRACTITEMMODEL.H
C:\DEVELOPMENT\OTS-LIB\QT 5.5\MSVC2013\INCLUDE\QTCORE\QITEMSELECTIONMODEL.H
C:\DEVELOPMENT\OTS-LIB\QT 5.5\MSVC2013\INCLUDE\QTCORE\QSET.H
C:\DEVELOPMENT\OTS-LIB\QT 5.5\MSVC2013\INCLUDE\QTWIDGETS\QABSTRACTITEMDELEGATE.H
C:\DEVELOPMENT\OTS-LIB\QT 5.5\MSVC2013\INCLUDE\QTWIDGETS\QSTYLEOPTION.H
C:\DEVELOPMENT\OTS-LIB\QT 5.5\MSVC2013\INCLUDE\QTWIDGETS\QABSTRACTSPINBOX.H
C:\DEVELOPMENT\OTS-LIB\QT 5.5\MSVC2013\INCLUDE\QTGUI\QVALIDATOR.H
C:\DEVELOPMENT\OTS-LIB\QT 5.5\MSVC2013\INCLUDE\QTCORE\QREGULAREXPRESSION.H
C:\DEVELOPMENT\OTS-LIB\QT 5.5\MSVC2013\INCLUDE\QTWIDGETS\QSLIDER.H
C:\DEVELOPMENT\OTS-LIB\QT 5.5\MSVC2013\INCLUDE\QTWIDGETS\QABSTRACTSLIDER.H
C:\DEVELOPMENT\OTS-LIB\QT 5.5\MSVC2013\INCLUDE\QTWIDGETS\QSTYLE.H
C:\DEVELOPMENT\OTS-LIB\QT 5.5\MSVC2013\INCLUDE\QTWIDGETS\QTABBAR.H
C:\DEVELOPMENT\OTS-LIB\QT 5.5\MSVC2013\INCLUDE\QTWIDGETS\QTABWIDGET.H
C:\DEVELOPMENT\OTS-LIB\QT 5.5\MSVC2013\INCLUDE\QTWIDGETS\QRUBBERBAND.H
C:\DEVELOPMENT\OTS-LIB\QT 5.5\MSVC2013\INCLUDE\QTWIDGETS\QLABEL
C:\DEVELOPMENT\OTS-LIB\QT 5.5\MSVC2013\INCLUDE\QTWIDGETS\QLABEL.H
C:\DEVELOPMENT\OTS-LIB\QT 5.5\MSVC2013\INCLUDE\QTWIDGETS\QLINEEDIT
C:\DEVELOPMENT\OTS-LIB\QT 5.5\MSVC2013\INCLUDE\QTWIDGETS\QLINEEDIT.H
C:\DEVELOPMENT\OTS-LIB\QT 5.5\MSVC2013\INCLUDE\QTGUI\QTEXTCURSOR.H
C:\DEVELOPMENT\OTS-LIB\QT 5.5\MSVC2013\INCLUDE\QTGUI\QTEXTFORMAT.H
C:\DEVELOPMENT\OTS-LIB\QT 5.5\MSVC2013\INCLUDE\QTGUI\QPEN.H
C:\DEVELOPMENT\OTS-LIB\QT 5.5\MSVC2013\INCLUDE\QTGUI\QTEXTOPTION.H
C:\DEVELOPMENT\OTS-LIB\QT 5.5\MSVC2013\INCLUDE\QTWIDGETS\QLISTWIDGET
C:\DEVELOPMENT\OTS-LIB\QT 5.5\MSVC2013\INCLUDE\QTWIDGETS\QLISTWIDGET.H
C:\DEVELOPMENT\OTS-LIB\QT 5.5\MSVC2013\INCLUDE\QTWIDGETS\QLISTVIEW.H
C:\DEVELOPMENT\OTS-LIB\QT 5.5\MSVC2013\INCLUDE\QTWIDGETS\QPUSHBUTTON
C:\DEVELOPMENT\OTS-LIB\QT 5.5\MSVC2013\INCLUDE\QTWIDGETS\QPUSHBUTTON.H
C:\DEVELOPMENT\OTS-LIB\QT 5.5\MSVC2013\INCLUDE\QTWIDGETS\QRADIOBUTTON
C:\DEVELOPMENT\OTS-LIB\QT 5.5\MSVC2013\INCLUDE\QTWIDGETS\QRADIOBUTTON.H
C:\DEVELOPMENT\CODE BASE\CORELIBS\IMU-LIB\INCLUDE\BLUETOOTHIMUDEVICE.H
C:\DEVELOPMENT\OTS-LIB\QT 5.5\MSVC2013\INCLUDE\QTCORE\QOBJECT
C:\DEVELOPMENT\OTS-LIB\QT 5.5\MSVC2013\INCLUDE\QTCORE\QSTRING
D:\PROGRAM FILES\VISUAL STUDIO 2013\VC\INCLUDE\FSTREAM
C:\DEVELOPMENT\CODE BASE\CORELIBS\IMU-LIB\INCLUDE\APITYPES.H
C:\DEVELOPMENT\CODE BASE\CORELIBS\IMU-LIB\INCLUDE\CMD_DEF.H
C:\DEVELOPMENT\BLESERVER\PIPEPROT.H
C:\PROGRAM FILES (X86)\WINDOWS KITS\8.1\INCLUDE\UM\WINDOWS.H
C:\PROGRAM FILES (X86)\WINDOWS KITS\8.1\INCLUDE\SHARED\WINAPIFAMILY.H
C:\PROGRAM FILES (X86)\WINDOWS KITS\8.1\INCLUDE\SHARED\SDKDDKVER.H
D:\PROGRAM FILES\VISUAL STUDIO 2013\VC\INCLUDE\EXCPT.H
C:\PROGRAM FILES (X86)\WINDOWS KITS\8.1\INCLUDE\SHARED\WINDEF.H
C:\PROGRAM FILES (X86)\WINDOWS KITS\8.1\INCLUDE\SHARED\MINWINDEF.H
C:\PROGRAM FILES (X86)\WINDOWS KITS\8.1\INCLUDE\SHARED\SPECSTRINGS.H
C:\PROGRAM FILES (X86)\WINDOWS KITS\8.1\INCLUDE\SHARED\SPECSTRINGS_STRICT.H
C:\PROGRAM FILES (X86)\WINDOWS KITS\8.1\INCLUDE\SHARED\SPECSTRINGS_UNDEF.H
C:\PROGRAM FILES (X86)\WINDOWS KITS\8.1\INCLUDE\SHARED\DRIVERSPECS.H
C:\PROGRAM FILES (X86)\WINDOWS KITS\8.1\INCLUDE\SHARED\SDV_DRIVERSPECS.H
C:\PROGRAM FILES (X86)\WINDOWS KITS\8.1\INCLUDE\UM\WINNT.H
C:\PROGRAM FILES (X86)\WINDOWS KITS\8.1\INCLUDE\SHARED\KERNELSPECS.H
C:\PROGRAM FILES (X86)\WINDOWS KITS\8.1\INCLUDE\SHARED\BASETSD.H
C:\PROGRAM FILES (X86)\WINDOWS KITS\8.1\INCLUDE\SHARED\GUIDDEF.H
C:\PROGRAM FILES (X86)\WINDOWS KITS\8.1\INCLUDE\SHARED\PSHPACK4.H
C:\PROGRAM FILES (X86)\WINDOWS KITS\8.1\INCLUDE\SHARED\POPPACK.H
C:\PROGRAM FILES (X86)\WINDOWS KITS\8.1\INCLUDE\SHARED\PSHPACK2.H
C:\PROGRAM FILES (X86)\WINDOWS KITS\8.1\INCLUDE\SHARED\PSHPACK8.H
C:\PROGRAM FILES (X86)\WINDOWS KITS\8.1\INCLUDE\SHARED\APISET.H
C:\PROGRAM FILES (X86)\WINDOWS KITS\8.1\INCLUDE\SHARED\KTMTYPES.H
C:\PROGRAM FILES (X86)\WINDOWS KITS\8.1\INCLUDE\UM\WINBASE.H
C:\PROGRAM FILES (X86)\WINDOWS KITS\8.1\INCLUDE\SHARED\APISETCCONV.H
C:\PROGRAM FILES (X86)\WINDOWS KITS\8.1\INCLUDE\UM\MINWINBASE.H
C:\PROGRAM FILES (X86)\WINDOWS KITS\8.1\INCLUDE\UM\PROCESSENV.H
C:\PROGRAM FILES (X86)\WINDOWS KITS\8.1\INCLUDE\UM\FILEAPI.H
C:\PROGRAM FILES (X86)\WINDOWS KITS\8.1\INCLUDE\UM\DEBUGAPI.H
C:\PROGRAM FILES (X86)\WINDOWS KITS\8.1\INCLUDE\UM\UTILAPISET.H
C:\PROGRAM FILES (X86)\WINDOWS KITS\8.1\INCLUDE\UM\HANDLEAPI.H
C:\PROGRAM FILES (X86)\WINDOWS KITS\8.1\INCLUDE\UM\ERRHANDLINGAPI.H
C:\PROGRAM FILES (X86)\WINDOWS KITS\8.1\INCLUDE\UM\FIBERSAPI.H
C:\PROGRAM FILES (X86)\WINDOWS KITS\8.1\INCLUDE\UM\NAMEDPIPEAPI.H
C:\PROGRAM FILES (X86)\WINDOWS KITS\8.1\INCLUDE\UM\PROFILEAPI.H
C:\PROGRAM FILES (X86)\WINDOWS KITS\8.1\INCLUDE\UM\HEAPAPI.H
C:\PROGRAM FILES (X86)\WINDOWS KITS\8.1\INCLUDE\UM\IOAPISET.H
C:\PROGRAM FILES (X86)\WINDOWS KITS\8.1\INCLUDE\UM\SYNCHAPI.H
C:\PROGRAM FILES (X86)\WINDOWS KITS\8.1\INCLUDE\UM\INTERLOCKEDAPI.H
C:\PROGRAM FILES (X86)\WINDOWS KITS\8.1\INCLUDE\UM\PROCESSTHREADSAPI.H
C:\PROGRAM FILES (X86)\WINDOWS KITS\8.1\INCLUDE\UM\SYSINFOAPI.H
C:\PROGRAM FILES (X86)\WINDOWS KITS\8.1\INCLUDE\UM\MEMORYAPI.H
C:\PROGRAM FILES (X86)\WINDOWS KITS\8.1\INCLUDE\UM\THREADPOOLLEGACYAPISET.H
C:\PROGRAM FILES (X86)\WINDOWS KITS\8.1\INCLUDE\UM\THREADPOOLAPISET.H
C:\PROGRAM FILES (X86)\WINDOWS KITS\8.1\INCLUDE\UM\BEMAPISET.H
C:\PROGRAM FILES (X86)\WINDOWS KITS\8.1\INCLUDE\UM\JOBAPI.H
C:\PROGRAM FILES (X86)\WINDOWS KITS\8.1\INCLUDE\UM\WOW64APISET.H
C:\PROGRAM FILES (X86)\WINDOWS KITS\8.1\INCLUDE\UM\LIBLOADERAPI.H
C:\PROGRAM FILES (X86)\WINDOWS KITS\8.1\INCLUDE\UM\SECURITYBASEAPI.H
C:\PROGRAM FILES (X86)\WINDOWS KITS\8.1\INCLUDE\UM\NAMESPACEAPI.H
C:\PROGRAM FILES (X86)\WINDOWS KITS\8.1\INCLUDE\UM\SYSTEMTOPOLOGYAPI.H
C:\PROGRAM FILES (X86)\WINDOWS KITS\8.1\INCLUDE\UM\PROCESSTOPOLOGYAPI.H
C:\PROGRAM FILES (X86)\WINDOWS KITS\8.1\INCLUDE\UM\SECURITYAPPCONTAINER.H
C:\PROGRAM FILES (X86)\WINDOWS KITS\8.1\INCLUDE\UM\REALTIMEAPISET.H
C:\PROGRAM FILES (X86)\WINDOWS KITS\8.1\INCLUDE\SHARED\WINERROR.H
C:\PROGRAM FILES (X86)\WINDOWS KITS\8.1\INCLUDE\UM\TIMEZONEAPI.H
C:\PROGRAM FILES (X86)\WINDOWS KITS\8.1\INCLUDE\UM\WINGDI.H
C:\PROGRAM FILES (X86)\WINDOWS KITS\8.1\INCLUDE\SHARED\PSHPACK1.H
C:\PROGRAM FILES (X86)\WINDOWS KITS\8.1\INCLUDE\UM\WINUSER.H
C:\PROGRAM FILES (X86)\WINDOWS KITS\8.1\INCLUDE\SHARED\TVOUT.H
C:\PROGRAM FILES (X86)\WINDOWS KITS\8.1\INCLUDE\UM\WINNLS.H
C:\PROGRAM FILES (X86)\WINDOWS KITS\8.1\INCLUDE\UM\DATETIMEAPI.H
C:\PROGRAM FILES (X86)\WINDOWS KITS\8.1\INCLUDE\UM\STRINGAPISET.H
C:\PROGRAM FILES (X86)\WINDOWS KITS\8.1\INCLUDE\UM\WINCON.H
C:\PROGRAM FILES (X86)\WINDOWS KITS\8.1\INCLUDE\UM\CONSOLEAPI.H
C:\PROGRAM FILES (X86)\WINDOWS KITS\8.1\INCLUDE\UM\WINVER.H
C:\PROGRAM FILES (X86)\WINDOWS KITS\8.1\INCLUDE\UM\VERRSRC.H
C:\PROGRAM FILES (X86)\WINDOWS KITS\8.1\INCLUDE\UM\WINREG.H
C:\PROGRAM FILES (X86)\WINDOWS KITS\8.1\INCLUDE\UM\REASON.H
C:\PROGRAM FILES (X86)\WINDOWS KITS\8.1\INCLUDE\UM\WINNETWK.H
C:\PROGRAM FILES (X86)\WINDOWS KITS\8.1\INCLUDE\SHARED\WNNC.H
C:\PROGRAM FILES (X86)\WINDOWS KITS\8.1\INCLUDE\SHARED\CDERR.H
C:\PROGRAM FILES (X86)\WINDOWS KITS\8.1\INCLUDE\UM\DDE.H
C:\PROGRAM FILES (X86)\WINDOWS KITS\8.1\INCLUDE\UM\DDEML.H
C:\PROGRAM FILES (X86)\WINDOWS KITS\8.1\INCLUDE\UM\DLGS.H
C:\PROGRAM FILES (X86)\WINDOWS KITS\8.1\INCLUDE\UM\LZEXPAND.H
C:\PROGRAM FILES (X86)\WINDOWS KITS\8.1\INCLUDE\UM\MMSYSTEM.H
C:\PROGRAM FILES (X86)\WINDOWS KITS\8.1\INCLUDE\UM\MMSYSCOM.H
C:\PROGRAM FILES (X86)\WINDOWS KITS\8.1\INCLUDE\UM\MCIAPI.H
C:\PROGRAM FILES (X86)\WINDOWS KITS\8.1\INCLUDE\UM\MMISCAPI.H
C:\PROGRAM FILES (X86)\WINDOWS KITS\8.1\INCLUDE\UM\MMISCAPI2.H
C:\PROGRAM FILES (X86)\WINDOWS KITS\8.1\INCLUDE\UM\PLAYSOUNDAPI.H
C:\PROGRAM FILES (X86)\WINDOWS KITS\8.1\INCLUDE\UM\MMEAPI.H
C:\PROGRAM FILES (X86)\WINDOWS KITS\8.1\INCLUDE\UM\TIMEAPI.H
C:\PROGRAM FILES (X86)\WINDOWS KITS\8.1\INCLUDE\UM\JOYSTICKAPI.H
C:\PROGRAM FILES (X86)\WINDOWS KITS\8.1\INCLUDE\UM\NB30.H
C:\PROGRAM FILES (X86)\WINDOWS KITS\8.1\INCLUDE\SHARED\RPC.H
C:\PROGRAM FILES (X86)\WINDOWS KITS\8.1\INCLUDE\SHARED\RPCDCE.H
C:\PROGRAM FILES (X86)\WINDOWS KITS\8.1\INCLUDE\SHARED\RPCDCEP.H
C:\PROGRAM FILES (X86)\WINDOWS KITS\8.1\INCLUDE\UM\RPCNSI.H
C:\PROGRAM FILES (X86)\WINDOWS KITS\8.1\INCLUDE\SHARED\RPCNTERR.H
C:\PROGRAM FILES (X86)\WINDOWS KITS\8.1\INCLUDE\SHARED\RPCASYNC.H
C:\PROGRAM FILES (X86)\WINDOWS KITS\8.1\INCLUDE\UM\SHELLAPI.H
C:\PROGRAM FILES (X86)\WINDOWS KITS\8.1\INCLUDE\UM\WINPERF.H
C:\PROGRAM FILES (X86)\WINDOWS KITS\8.1\INCLUDE\UM\WINSOCK.H
C:\PROGRAM FILES (X86)\WINDOWS KITS\8.1\INCLUDE\SHARED\INADDR.H
C:\PROGRAM FILES (X86)\WINDOWS KITS\8.1\INCLUDE\UM\WINCRYPT.H
C:\PROGRAM FILES (X86)\WINDOWS KITS\8.1\INCLUDE\SHARED\BCRYPT.H
C:\PROGRAM FILES (X86)\WINDOWS KITS\8.1\INCLUDE\UM\NCRYPT.H
C:\PROGRAM FILES (X86)\WINDOWS KITS\8.1\INCLUDE\UM\DPAPI.H
C:\PROGRAM FILES (X86)\WINDOWS KITS\8.1\INCLUDE\UM\WINEFS.H
C:\PROGRAM FILES (X86)\WINDOWS KITS\8.1\INCLUDE\UM\WINSCARD.H
C:\PROGRAM FILES (X86)\WINDOWS KITS\8.1\INCLUDE\SHARED\WTYPES.H
C:\PROGRAM FILES (X86)\WINDOWS KITS\8.1\INCLUDE\SHARED\RPCNDR.H
C:\PROGRAM FILES (X86)\WINDOWS KITS\8.1\INCLUDE\UM\RPCNSIP.H
C:\PROGRAM FILES (X86)\WINDOWS KITS\8.1\INCLUDE\SHARED\RPCSAL.H
C:\PROGRAM FILES (X86)\WINDOWS KITS\8.1\INCLUDE\SHARED\WTYPESBASE.H
C:\PROGRAM FILES (X86)\WINDOWS KITS\8.1\INCLUDE\UM\WINIOCTL.H
C:\PROGRAM FILES (X86)\WINDOWS KITS\8.1\INCLUDE\SHARED\WINSMCRD.H
C:\PROGRAM FILES (X86)\WINDOWS KITS\8.1\INCLUDE\UM\WINSPOOL.H
C:\PROGRAM FILES (X86)\WINDOWS KITS\8.1\INCLUDE\UM\PRSHT.H
C:\PROGRAM FILES (X86)\WINDOWS KITS\8.1\INCLUDE\UM\OLE2.H
C:\PROGRAM FILES (X86)\WINDOWS KITS\8.1\INCLUDE\UM\OBJBASE.H
C:\PROGRAM FILES (X86)\WINDOWS KITS\8.1\INCLUDE\UM\COMBASEAPI.H
C:\PROGRAM FILES (X86)\WINDOWS KITS\8.1\INCLUDE\UM\UNKNWNBASE.H
C:\PROGRAM FILES (X86)\WINDOWS KITS\8.1\INCLUDE\UM\OBJIDLBASE.H
C:\PROGRAM FILES (X86)\WINDOWS KITS\8.1\INCLUDE\UM\CGUID.H
C:\PROGRAM FILES (X86)\WINDOWS KITS\8.1\INCLUDE\UM\OBJIDL.H
C:\PROGRAM FILES (X86)\WINDOWS KITS\8.1\INCLUDE\UM\UNKNWN.H
C:\PROGRAM FILES (X86)\WINDOWS KITS\8.1\INCLUDE\UM\URLMON.H
C:\PROGRAM FILES (X86)\WINDOWS KITS\8.1\INCLUDE\UM\OLEIDL.H
C:\PROGRAM FILES (X86)\WINDOWS KITS\8.1\INCLUDE\UM\SERVPROV.H
C:\PROGRAM FILES (X86)\WINDOWS KITS\8.1\INCLUDE\UM\MSXML.H
C:\PROGRAM FILES (X86)\WINDOWS KITS\8.1\INCLUDE\UM\OAIDL.H
C:\PROGRAM FILES (X86)\WINDOWS KITS\8.1\INCLUDE\UM\PROPIDL.H
C:\PROGRAM FILES (X86)\WINDOWS KITS\8.1\INCLUDE\UM\OLEAUTO.H
C:\PROGRAM FILES (X86)\WINDOWS KITS\8.1\INCLUDE\UM\COMMDLG.H
C:\PROGRAM FILES (X86)\WINDOWS KITS\8.1\INCLUDE\SHARED\STRALIGN.H
C:\PROGRAM FILES (X86)\WINDOWS KITS\8.1\INCLUDE\UM\WINSVC.H
C:\PROGRAM FILES (X86)\WINDOWS KITS\8.1\INCLUDE\UM\MCX.H
C:\PROGRAM FILES (X86)\WINDOWS KITS\8.1\INCLUDE\UM\IMM.H
C:\PROGRAM FILES (X86)\WINDOWS KITS\8.1\INCLUDE\UM\IME_CMODES.H
C:\DEVELOPMENT\CODE BASE\CORELIBS\IMU-LIB\INCLUDE\BLUETOOTHCONTROLLER.H
C:\DEVELOPMENT\OTS-LIB\QT 5.5\MSVC2013\INCLUDE\QTCORE\QSTRINGLIST
C:\DEVELOPMENT\CODE BASE\CORELIBS\IMU-LIB\INCLUDE\BLUETOOTHCOMMUNICATIONTHREAD.H
C:\DEVELOPMENT\OTS-LIB\QT 5.5\MSVC2013\INCLUDE\QTCORE\QTHREAD.H
D:\PROGRAM FILES\VISUAL STUDIO 2013\VC\INCLUDE\QUEUE
D:\PROGRAM FILES\VISUAL STUDIO 2013\VC\INCLUDE\DEQUE
C:\DEVELOPMENT\CODE BASE\CORELIBS\IMU-LIB\INCLUDE\BLUETOOTHSTATUSTHREAD.H
C:\DEVELOPMENT\CODE BASE\CORELIBS\IMU-LIB\INCLUDE\COMMONDEFINITIONSIMU.H
C:\DEVELOPMENT\CODE BASE\CORELIBS\IMU-LIB\INCLUDE\IOHANDLERCONTROLLER.H
C:\DEVELOPMENT\CODE BASE\CORELIBS\IMU-LIB\INCLUDE\IOHANDLER.H
C:\DEVELOPMENT\CODE BASE\CORELIBS\IMU-LIB\INCLUDE\IMU.H
C:\DEVELOPMENT\OTS-LIB\QT 5.5\MSVC2013\INCLUDE\QTWIDGETS\QMESSAGEBOX
C:\DEVELOPMENT\OTS-LIB\QT 5.5\MSVC2013\INCLUDE\QTWIDGETS\QMESSAGEBOX.H
C:\DEVELOPMENT\OTS-LIB\QT 5.5\MSVC2013\INCLUDE\QTWIDGETS\QMAINWINDOW
C:\DEVELOPMENT\OTS-LIB\QT 5.5\MSVC2013\INCLUDE\QTWIDGETS\QMAINWINDOW.H
D:\PROGRAM FILES\VISUAL STUDIO 2013\VC\INCLUDE\IOSTREAM
C:\DEVELOPMENT\OTS-LIB\QT 5.5\MSVC2013\INCLUDE\QTXML\QDOM.H
C:\DEVELOPMENT\OTS-LIB\QT 5.5\MSVC2013\INCLUDE\QTXML\QTXMLGLOBAL.H
C:\DEVELOPMENT\OTS-LIB\QT 5.5\MSVC2013\INCLUDE\QTCORE\QDEBUG.H
C:\DEVELOPMENT\OTS-LIB\QT 5.5\MSVC2013\INCLUDE\QTCORE\QTEXTSTREAM.H
C:\DEVELOPMENT\OTS-LIB\QT 5.5\MSVC2013\INCLUDE\QTCORE\QCONTIGUOUSCACHE.H
C:\DEVELOPMENT\OTS-LIB\QT 5.5\MSVC2013\INCLUDE\QTCORE\QTIMER.H
C:\DEVELOPMENT\OTS-LIB\QT 5.5\MSVC2013\INCLUDE\QTCORE\QBASICTIMER.H
C:\DEVELOPMENT\OTS-LIB\QT 5.5\MSVC2013\INCLUDE\QTCORE\QTHREAD
C:\DEVELOPMENT\OTS-LIB\QT 5.5\MSVC2013\INCLUDE\QTWIDGETS\QBOXLAYOUT
C:\DEVELOPMENT\OTS-LIB\QT 5.5\MSVC2013\INCLUDE\QTWIDGETS\QBOXLAYOUT.H
C:\DEVELOPMENT\OTS-LIB\QT 5.5\MSVC2013\INCLUDE\QTWIDGETS\QLAYOUT.H
C:\DEVELOPMENT\OTS-LIB\QT 5.5\MSVC2013\INCLUDE\QTWIDGETS\QLAYOUTITEM.H
C:\DEVELOPMENT\OTS-LIB\QT 5.5\MSVC2013\INCLUDE\QTWIDGETS\QGRIDLAYOUT.H
C:\DEVELOPMENT\OTS-LIB\QT 5.5\MSVC2013\INCLUDE\QTWIDGETS\QCOMBOBOX
C:\DEVELOPMENT\OTS-LIB\QT 5.5\MSVC2013\INCLUDE\QTWIDGETS\QCOMBOBOX.H
C:\DEVELOPMENT\OTS-LIB\QT 5.5\MSVC2013\INCLUDE\QTWIDGETS\QWIDGET
C:\DEVELOPMENT\OTS-LIB\QT 5.5\MSVC2013\INCLUDE\QTCORE\QTIMER
C:\DEVELOPMENT\OTS-LIB\QT 5.5\MSVC2013\INCLUDE\QTCORE\QDIR
C:\DEVELOPMENT\OTS-LIB\QT 5.5\MSVC2013\INCLUDE\QTCORE\QDIR.H
C:\DEVELOPMENT\OTS-LIB\QT 5.5\MSVC2013\INCLUDE\QTCORE\QFILEINFO.H
C:\DEVELOPMENT\OTS-LIB\QT 5.5\MSVC2013\INCLUDE\QTCORE\QFILE.H
C:\DEVELOPMENT\OTS-LIB\QT 5.5\MSVC2013\INCLUDE\QTCORE\QFILEDEVICE.H
C:\DEVELOPMENT\OTS-LIB\QT 5.5\MSVC2013\INCLUDE\QTCORE\QDATETIME
C:\DEVELOPMENT\OTS-LIB\QT 5.5\MSVC2013\INCLUDE\QTCORE\QDATETIME.H
C:\DEVELOPMENT\OTS-LIB\QT 5.5\MSVC2013\INCLUDE\QTCORE\QMUTEX
D:\PROGRAM FILES\VISUAL STUDIO 2013\VC\INCLUDE\TIME.H
D:\PROGRAM FILES\VISUAL STUDIO 2013\VC\INCLUDE\TIME.INL
C:\DEVELOPMENT\BLESERVER\VERSION.H
